^D:\PROGRAMOWANIE\GK_ZADANIE_10\GK_ZADANIE_10\DEBUG\GK_ZADANIE_10.OBJ|D:\PROGRAMOWANIE\GK_ZADANIE_10\GK_ZADANIE_10\DEBUG\STDAFX.OBJ
/OUT:"D:\PROGRAMOWANIE\GK_ZADANIE_10\DEBUG\GK_ZADANIE_10.EXE" /INCREMENTAL /NOLOGO D:\PROGRAMOWANIE\GK_ZADANIE_10\PACKAGES\NUPENGL.CORE.0.1.0.1\BUILD\NATIVE\../..//BUILD/NATIVE/LIB/WIN32\GLEW32.LIB D:\PROGRAMOWANIE\GK_ZADANIE_10\PACKAGES\NUPENGL.CORE.0.1.0.1\BUILD\NATIVE\../..//BUILD/NATIVE/LIB/WIN32\GLFW3DLL.LIB D:\PROGRAMOWANIE\GK_ZADANIE_10\PACKAGES\NUPENGL.CORE.0.1.0.1\BUILD\NATIVE\../..//BUILD/NATIVE/LIB/WIN32\FREEGLUT.LIB KERNEL32.LIB USER32.LIB GDI32.LIB WINSPOOL.LIB COMDLG32.LIB ADVAPI32.LIB SHELL32.LIB OLE32.LIB OLEAUT32.LIB UUID.LIB ODBC32.LIB ODBCCP32.LIB /MANIFEST /MANIFESTUAC:"level='asInvoker' uiAccess='false'" /manifest:embed /DEBUG:FASTLINK /PDB:"D:\PROGRAMOWANIE\GK_ZADANIE_10\DEBUG\GK_ZADANIE_10.PDB" /SUBSYSTEM:CONSOLE /TLBID:1 /DYNAMICBASE /NXCOMPAT /IMPLIB:"D:\PROGRAMOWANIE\GK_ZADANIE_10\DEBUG\GK_ZADANIE_10.LIB" /MACHINE:X86 DEBUG\GK_ZADANIE_10.OBJDEBUG\STDAFX.OBJ
^C:\USERS\SEBASTIAN\DOCUMENTS\GRAFIKA-SPRAWOZDANIE-10\SPRAWOZDANIE10\GK_ZADANIE_10\DEBUG\GK_ZADANIE_10.OBJ|C:\USERS\SEBASTIAN\DOCUMENTS\GRAFIKA-SPRAWOZDANIE-10\SPRAWOZDANIE10\GK_ZADANIE_10\DEBUG\STDAFX.OBJ
/OUT:"C:\USERS\SEBASTIAN\DOCUMENTS\GRAFIKA-SPRAWOZDANIE-10\SPRAWOZDANIE10\DEBUG\GK_ZADANIE_10.EXE" /INCREMENTAL /NOLOGO "C:\USERS\SEBASTIAN\DOCUMENTS\GRAFIKA-SPRAWOZDANIE-10\SPRAWOZDANIE10\PACKAGES\NUPENGL.CORE.0.1.0.1\BUILD\NATIVE\../..//BUILD/NATIVE/LIB/WIN32\GLEW32.LIB" "C:\USERS\SEBASTIAN\DOCUMENTS\GRAFIKA-SPRAWOZDANIE-10\SPRAWOZDANIE10\PACKAGES\NUPENGL.CORE.0.1.0.1\BUILD\NATIVE\../..//BUILD/NATIVE/LIB/WIN32\GLFW3DLL.LIB" "C:\USERS\SEBASTIAN\DOCUMENTS\GRAFIKA-SPRAWOZDANIE-10\SPRAWOZDANIE10\PACKAGES\NUPENGL.CORE.0.1.0.1\BUILD\NATIVE\../..//BUILD/NATIVE/LIB/WIN32\FREEGLUT.LIB" KERNEL32.LIB USER32.LIB GDI32.LIB WINSPOOL.LIB COMDLG32.LIB ADVAPI32.LIB SHELL32.LIB OLE32.LIB OLEAUT32.LIB UUID.LIB ODBC32.LIB ODBCCP32.LIB /MANIFEST /MANIFESTUAC:"level='asInvoker' uiAccess='false'" /manifest:embed /DEBUG:FASTLINK /PDB:"C:\USERS\SEBASTIAN\DOCUMENTS\GRAFIKA-SPRAWOZDANIE-10\SPRAWOZDANIE10\DEBUG\GK_ZADANIE_10.PDB" /SUBSYSTEM:CONSOLE /TLBID:1 /DYNAMICBASE /NXCOMPAT /IMPLIB:"C:\USERS\SEBASTIAN\DOCUMENTS\GRAFIKA-SPRAWOZDANIE-10\SPRAWOZDANIE10\DEBUG\GK_ZADANIE_10.LIB" /MACHINE:X86 DEBUG\GK_ZADANIE_10.OBJDEBUG\STDAFX.OBJ
